\relax 
\providecommand\hyper@newdestlabel[2]{}
\@writefile{toc}{\contentsline {chapter}{\numberline {1}Esquema}{1}{chapter.1}}
\@writefile{lof}{\addvspace {10\p@ }}
\@writefile{lot}{\addvspace {10\p@ }}
\@setckpt{Pages/Esquema}{
\setcounter{page}{2}
\setcounter{equation}{0}
\setcounter{enumi}{0}
\setcounter{enumii}{0}
\setcounter{enumiii}{0}
\setcounter{enumiv}{0}
\setcounter{footnote}{0}
\setcounter{mpfootnote}{0}
\setcounter{part}{0}
\setcounter{chapter}{1}
\setcounter{section}{0}
\setcounter{subsection}{0}
\setcounter{subsubsection}{0}
\setcounter{paragraph}{0}
\setcounter{subparagraph}{0}
\setcounter{figure}{0}
\setcounter{table}{0}
\setcounter{lstnumber}{1}
\setcounter{float@type}{8}
\setcounter{parentequation}{0}
\setcounter{@index}{0}
\setcounter{@plane}{0}
\setcounter{@row}{0}
\setcounter{@col}{0}
\setcounter{use@args}{0}
\setcounter{@record}{0}
\setcounter{arg@index}{0}
\setcounter{break@count}{0}
\setcounter{index@count}{0}
\setcounter{loop@count}{0}
\setcounter{VerbboxLineNo}{0}
\setcounter{Item}{0}
\setcounter{Hfootnote}{0}
\setcounter{bookmark@seq@number}{1}
\setcounter{section@level}{0}
\setcounter{LT@tables}{0}
\setcounter{LT@chunks}{0}
\setcounter{lstlisting}{0}
}
